<script>
	$j(function() {
		$j("ul#std_information").append("<li><a href='stuff/studentinventory_stuff.html?type=current&frn=~(studentfrn)'>Inventory</a></li>");	
		
		$j("ul#std_information li").sort(function(a, b)
			{
				if($j(a).text() < $j(b).text()) return -1;
				if($j(a).text() > $j(b).text()) return 1;
				return 0;
			}
		).appendTo("ul#std_information");
	});
</script>